…
View the example dataset of US trade deficit data from January 1987 to
December 1988.

``` r
US_Trade_Deficit
#> # A tibble: 24 x 2
#>    date    deficit_billions
#>    <chr>              <dbl>
#>  1 Jan '87             10.7
#>  2 Feb '87             13  
#>  3 Mar '87             11.4
#>  4 Apr '87             11.5
#>  5 May '87             12.5
#>  6 Jun '87             14.1
#>  7 Jul '87             14.8
#>  8 Aug '87             14.1
#>  9 Sep '87             12.6
#> 10 Oct '87             16  
#> # ... with 14 more rows
```
…
