The dependency network of all CRAN packages
…
In the introduction we have see that a dependency network can be built using get_dep_df(). While it is theoretically possible to use get_dep_df() iteratively to obtain all dependencies of all packages available on CRAN, it is not practical to do so. This package provides two functions get_dep_all_packages() and get_graph_all_packges() for obtaining the dependencies of all CRAN packages directly, as well as an example dataset.

library(crandep)
library(dplyr)
library(ggplot2)
library(igraph)
library(visNetwork)

All types of dependencies, in a data frame

The example dataset cran_dependencies contains all dependencies as of 2020-05-09.

data(cran_dependencies)
cran_dependencies
#> # A tibble: 211,381 x 4
#>    from  to             type     reverse
#>    <chr> <chr>          <chr>    <lgl>  
#>  1 A3    xtable         depends  FALSE  
#>  2 A3    pbapply        depends  FALSE  
#>  3 A3    randomForest   suggests FALSE  
#>  4 A3    e1071          suggests FALSE  
#>  5 aaSEA DT             imports  FALSE  
#>  6 aaSEA networkD3      imports  FALSE  
#>  7 aaSEA shiny          imports  FALSE  
#>  8 aaSEA shinydashboard imports  FALSE  
#>  9 aaSEA magrittr       imports  FALSE  
#> 10 aaSEA Bios2cor       imports  FALSE  
#> #  with 211,371 more rows
…
